…
    ## # A tibble: 1 x 2
    ##   beta1_hat p_value
    ##       <dbl>   <dbl>
    ## 1      14.3   0.207

``` r
sim_results_0 = 
  rerun(10000, sim_regression(30, 2, 0)) %>% 
  bind_rows()

sim_results_0
```

    ## # A tibble: 10,000 x 2
    ##    beta1_hat  p_value
    ##        <dbl>    <dbl>
    ##  1      8.70 0.182   
    ##  2      4.26 0.606   
    ##  3     21.4  0.000149
    ##  4     -8.42 0.471   
    ##  5    -10.6  0.219   
    ##  6    -13.9  0.192   
    ##  7      2.34 0.769   
    ##  8      4.07 0.670   
    ##  9     17.0  0.134   
    ## 10     -3.87 0.606   
    ## # … with 9,990 more rows

``` r
sim_results_1 = 
  rerun(10000, sim_regression(30, 2, 1)) %>% 
  bind_rows()

sim_results_1
```

    ## # A tibble: 10,000 x 2
    ##    beta1_hat p_value
    ##        <dbl>   <dbl>
    ##  1     15.9   0.0511
    ##  2      6.75  0.401 
    ##  3     15.3   0.0912
    ##  4      8.50  0.249 
    ##  5     -9.45  0.241 
    ##  6      5.74  0.495 
    ##  7     -7.80  0.504 
    ##  8      2.58  0.799 
    ##  9      2.56  0.767 
    ## 10     14.5   0.193 
    ## # … with 9,990 more rows

``` r
sim_results_2 = 
  rerun(10000, sim_regression(30, 2, 2)) %>% 
  bind_rows()

sim_results_2
```

    ## # A tibble: 10,000 x 2
    ##    beta1_hat p_value
    ##        <dbl>   <dbl>
    ##  1  -23.1     0.0588
    ##  2   -3.29    0.635 
    ##  3    7.57    0.377 
    ##  4   -0.0938  0.993 
    ##  5    7.89    0.417 
    ##  6   -9.00    0.496 
    ##  7   -0.390   0.956 
    ##  8   12.4     0.154 
    ##  9   -0.779   0.916 
    ## 10  -10.7     0.274 
    ## # … with 9,990 more rows

``` r
sim_results_3 = 
  rerun(10000, sim_regression(30, 2, 3)) %>% 
  bind_rows()

sim_results_3
```

    ## # A tibble: 10,000 x 2
    ##    beta1_hat p_value
    ##        <dbl>   <dbl>
    ##  1    -5.60   0.582 
    ##  2    -8.64   0.229 
    ##  3    19.4    0.0702
    ##  4     6.09   0.462 
    ##  5    -0.196  0.980 
    ##  6    -8.69   0.472 
    ##  7    12.0    0.171 
    ##  8     3.12   0.673 
    ##  9     0.575  0.936 
    ## 10    -1.17   0.895 
    ## # … with 9,990 more rows

``` r
sim_results_4 = 
  rerun(10000, sim_regression(30, 2, 4)) %>% 
  bind_rows()

sim_results_4
```

    ## # A tibble: 10,000 x 2
    ##    beta1_hat p_value
    ##        <dbl>   <dbl>
    ##  1     -3.73  0.679 
    ##  2      2.16  0.838 
    ##  3     -1.56  0.876 
    ##  4     12.2   0.214 
    ##  5      4.31  0.619 
    ##  6     15.9   0.0680
    ##  7    -11.4   0.287 
    ##  8     17.7   0.0705
    ##  9      1.37  0.867 
    ## 10    -11.2   0.286 
    ## # … with 9,990 more rows

``` r
sim_results_5 = 
  rerun(10000, sim_regression(30, 2, 5)) %>% 
  bind_rows()

sim_results_5
```

    ## # A tibble: 10,000 x 2
    ##    beta1_hat p_value
    ##        <dbl>   <dbl>
    ##  1     -3.36 0.696  
    ##  2     10.1  0.406  
    ##  3    -12.2  0.161  
    ##  4      1.12 0.885  
    ##  5     -2.83 0.756  
    ##  6     -8.75 0.356  
    ##  7     -1.74 0.868  
    ##  8     -3.86 0.750  
    ##  9     21.6  0.0281 
    ## 10    -20.4  0.00818
    ## # … with 9,990 more rows

``` r
sim_results_6 = 
  rerun(10000, sim_regression(30, 2, 6)) %>% 
  bind_rows()

sim_results_6
```

    ## # A tibble: 10,000 x 2
    ##    beta1_hat p_value
    ##        <dbl>   <dbl>
    ##  1      3.23 0.782  
    ##  2      9.37 0.287  
    ##  3    -10.1  0.394  
    ##  4      5.58 0.579  
    ##  5      1.76 0.798  
    ##  6      6.00 0.373  
    ##  7      2.11 0.817  
    ##  8     27.6  0.0376 
    ##  9      9.53 0.405  
    ## 10     29.7  0.00535
    ## # … with 9,990 more rows
